%YAML 1.1
%TAG !u! tag:unity3d.com,2011:
--- !u!162 &1
EditorUserSettings:
  m_ObjectHideFlags: 0
  serializedVersion: 4
  m_ConfigSettings:
    RecentlyUsedScenePath-0:
      value: 2242470311464673293c3c040531511902020a2f1c29253b621d0f3ae6e93221c4f224e7ee2e2a2e3c26ea310b0d023afc0f471ef8021e12
      flags: 0
    RecentlyUsedScenePath-1:
      value: 224247031146466f0201026236364d1e1f030d38296715332827187cc6e53937a2d435ece93f7129370bfb25
      flags: 0
    RecentlyUsedScenePath-2:
      value: 2242470311464678181d182d1d2a4511141b1d150a3d343e393c0f36adc2313cf0e839e4d4393a323c4dca380d2a003dfe0f3629f30f18041e03b31b1ff6040a
      flags: 0
    RecentlyUsedScenePath-3:
      value: 2242470311464678181d182d1d2a4511141b1d150a3d343e393c0f36adc2313cf0e839e4d4393a323c4dcc30013f0f3af63f1934d40e0e191e01f04004f1190708
      flags: 0
    RecentlyUsedScenePath-4:
      value: 2242470311464650041a0f2a152d101b1f031b22292666203f260d20ade52c39eff73aeca92f31352d1b
      flags: 0
    RecentlyUsedScenePath-5:
      value: 22424703114646760c1a093019225303593917233e0527222f251803e3e33f68b3a805eae2343a2f7631e733132c0e30ff390a0ef80e441e1f07e917
      flags: 0
    RecentlyUsedScenePath-6:
      value: 22424703114646680e0b0227036c6c111b07142f1f2b233e2867083debf42d
      flags: 0
    RecentlyUsedScenePath-7:
      value: 2242470311464675040d09623d224b15041e19263f6816312e225d61adc52c39eff73aeca7093c393707af7144100838fa1e4927ff0c021f5f1bf30705e6
      flags: 0
    RecentlyUsedScenePath-8:
      value: 2242470311464675040d09623d224b15041e19263f6816312e225d61adc52c39eff73aeca7093c393707af7144090033fe19471ef8021e12
      flags: 0
    RecentlyUsedScenePath-9:
      value: 2242470311464675040d09623d224b15041e19263f6816312e225d61adc52c39eff73aeca7093c393707af7144090936e60f4927ff0c021f5f1bf30705e6
      flags: 0
    lightmappingDeviceAndPlatform:
      value: 53
      flags: 0
    vcSharedLogLevel:
      value: 0d5e400f0650
      flags: 0
  m_VCAutomaticAdd: 1
  m_VCDebugCom: 0
  m_VCDebugCmd: 0
  m_VCDebugOut: 0
  m_SemanticMergeMode: 2
  m_VCShowFailedCheckout: 1
  m_VCOverwriteFailedCheckoutAssets: 1
  m_VCProjectOverlayIcons: 1
  m_VCHierarchyOverlayIcons: 1
  m_VCOtherOverlayIcons: 1
  m_VCAllowAsyncUpdate: 0
